[gd_resource type="Resource" load_steps=2 format=2]

[ext_resource path="res://scripts/tag_classes/tag_operator_not.gd" type="Script" id=1]

[resource]
script = ExtResource( 1 )
name = "not_init"
_value = false
dependees = [ null ]
