[gd_resource type="Resource" load_steps=4 format=2]

[ext_resource path="res://scripts/tag_classes/tag_regular.gd" type="Script" id=1]
[ext_resource path="res://custom_resources/tags_v2020_06_27/tag_airbourning.tres" type="Resource" id=2]
[ext_resource path="res://custom_resources/tags_v2020_06_27/tag_not_peak.tres" type="Resource" id=3]

[resource]
script = ExtResource( 1 )
name = "airbourning_phase_ascending"
_value = false
dependees = [ ExtResource( 2 ), ExtResource( 3 ) ]
