[gd_resource type="Resource" load_steps=5 format=2]

[ext_resource path="res://scripts/tag_classes/tag_regular.gd" type="Script" id=1]
[ext_resource path="res://custom_resources/tags_v2020_06_27/tag_not_reco.tres" type="Resource" id=2]
[ext_resource path="res://custom_resources/tags_v2020_06_27/tag_or_gaur_atta_hurt.tres" type="Resource" id=3]
[ext_resource path="res://custom_resources/tags_v2020_06_27/tag_battling.tres" type="Resource" id=4]

[resource]
script = ExtResource( 1 )
name = "battling_phase_fighting"
_value = false
dependees = [ ExtResource( 4 ), ExtResource( 2 ), ExtResource( 3 ) ]
