[gd_resource type="Resource" load_steps=2 format=2]

[ext_resource path="res://scripts/tag_classes/tag_operator_or.gd" type="Script" id=1]

[resource]
script = ExtResource( 1 )
name = "or_asce_peak_desc"
_value = false
dependees = [ null, null, null ]
tag_or_case = 0
