[gd_scene load_steps=2 format=2]

[sub_resource type="GDScript" id=1]
script/source = "#01. tool

#02. class_name

#03. extends
extends Control

#04. # docstring
\"\"\"
This code tries to follow the PEP 8 coding style, recommended by Godot documentation
	https://docs.godotengine.org/en/stable/getting_started/scripting/gdscript/gdscript_styleguide.html

Creation date: ***
Author: EthanLR (Megaguy32)
Description: ***


\"\"\"

#05. signals
#06. enums
#07. constants
#08. exported variables
#09. public variables
export(NodePath) var path_plc
#10. private variables
#11. onready variables
onready var plc = get_node(path_plc)

#12. optional built-in virtual _init method
#13. built-in virtual _ready method
#14. remaining built-in virtual methods
#15. public methods
#16. private methods


func _on_Button_pressed():
	plc.pt.tags.set_tag(plc.pt.tag_hunkering, true)
"

[node name="Hunker" type="Control"]
anchor_right = 1.0
anchor_bottom = 1.0
margin_right = -1224.0
margin_bottom = -700.0
script = SubResource( 1 )
__meta__ = {
"_edit_use_anchors_": false
}

[node name="Button" type="Button" parent="."]
margin_right = 56.0
margin_bottom = 20.0
text = "hunker"
__meta__ = {
"_edit_use_anchors_": false
}
[connection signal="pressed" from="Button" to="." method="_on_Button_pressed"]
