[gd_scene load_steps=10 format=2]

[ext_resource path="res://misc_images/animatedHoob/hoob_1.png" type="Texture" id=1]
[ext_resource path="res://misc_images/animatedHoob/hoob_2.png" type="Texture" id=2]
[ext_resource path="res://misc_images/animatedHoob/hoob_3.png" type="Texture" id=3]
[ext_resource path="res://misc_images/animatedHoob/hoob_4.png" type="Texture" id=4]
[ext_resource path="res://misc_images/animatedHoob/hoob_5.png" type="Texture" id=5]
[ext_resource path="res://misc_images/animatedHoob/hoob_6.png" type="Texture" id=6]
[ext_resource path="res://misc_images/animatedHoob/hoob_7.png" type="Texture" id=7]
[ext_resource path="res://misc_images/animatedHoob/hoob_8.png" type="Texture" id=8]


[sub_resource type="SpriteFrames" id=1]
animations = [ {
"frames": [ ExtResource( 1 ), ExtResource( 2 ), ExtResource( 3 ), ExtResource( 4 ), ExtResource( 5 ), ExtResource( 6 ), ExtResource( 7 ), ExtResource( 8 ) ],
"loop": true,
"name": "default",
"speed": 10.0
} ]

[node name="hoob" type="AnimatedSprite"]
frames = SubResource( 1 )
frame = 7
playing = true
