[gd_scene load_steps=5 format=2]

[ext_resource path="res://characters/obj_MainCharacter.tscn" type="PackedScene" id=1]
[ext_resource path="res://tilesets/LockDown2TileSet.tres" type="TileSet" id=2]
[ext_resource path="res://characters/EnemyNinja_Customized.tscn" type="PackedScene" id=3]

[sub_resource type="GDScript" id=1]
script/source = "extends Button


func _ready():
	pass


func _on_Button2_pressed():
	variableKeepPlayerCharacter.thePlayerCharacter.enemyFighterHead = null
"

[node name="Stage" type="Node"]

[node name="TileMap" type="TileMap" parent="."]
tile_set = ExtResource( 2 )
cell_size = Vector2( 16, 16 )
format = 1
tile_data = PoolIntArray( 0, 6, 0, 1, 6, 1, 2, 6, 1, 3, 6, 1, 4, 6, 1, 5, 6, 2, 6, 1, 131072, 7, 1, 131072, 8, 1, 131072, 9, 1, 131072, 10, 1, 131072, 11, 1, 131072, 12, 1, 131072, 13, 1, 131072, 14, 1, 131072, 15, 1, 131072, 16, 1, 131072, 17, 1, 131072, 18, 1, 131072, 19, 1, 131072, 20, 1, 131072, 21, 1, 131072, 22, 1, 131072, 23, 1, 131072, 24, 1, 131072, 25, 1, 131072, 26, 1, 131072, 27, 1, 131072, 28, 1, 131072, 29, 1, 131072, 30, 1, 131072, 31, 1, 131072, 32, 1, 131072, 33, 1, 131072, 34, 6, 0, 35, 6, 1, 36, 6, 1, 37, 6, 1, 38, 6, 1, 39, 6, 2, 65536, 6, 65536, 65537, 6, 65537, 65538, 6, 131073, 65539, 6, 131073, 65540, 6, 131073, 65541, 6, 131074, 65542, 1, 131072, 65543, 1, 131072, 65544, 1, 131072, 65545, 1, 131072, 65546, 1, 131072, 65547, 1, 131072, 65548, 1, 131072, 65549, 1, 131072, 65550, 1, 131072, 65551, 1, 131072, 65552, 1, 131072, 65553, 1, 131072, 65554, 1, 131072, 65555, 1, 131072, 65556, 1, 131072, 65557, 1, 131072, 65558, 1, 131072, 65559, 1, 131072, 65560, 1, 131072, 65561, 1, 131072, 65562, 1, 131072, 65563, 1, 131072, 65564, 1, 131072, 65565, 1, 131072, 65566, 1, 131072, 65567, 1, 131072, 65568, 1, 131072, 65569, 1, 131072, 65570, 6, 131072, 65571, 6, 131073, 65572, 6, 131073, 65573, 6, 131073, 65574, 6, 65537, 65575, 6, 65538, 131072, 6, 65536, 131073, 6, 65538, 131110, 6, 65536, 131111, 6, 65538, 196608, 6, 65536, 196609, 6, 65538, 196646, 6, 65536, 196647, 6, 65538, 262144, 6, 65536, 262145, 6, 65538, 262182, 6, 65536, 262183, 6, 65538, 327680, 6, 131072, 327681, 6, 131074, 327718, 6, 65536, 327719, 6, 65538, 393216, 3, 65536, 393217, 3, 65537, 393218, 3, 65538, 393254, 6, 65536, 393255, 6, 65538, 458752, 3, 131072, 458753, 3, 131073, 458754, 3, 131074, 458755, 3, 65536, 458756, 3, 65537, 458757, 3, 65537, 458758, 3, 65537, 458759, 3, 65537, 458760, 3, 65537, 458761, 3, 65538, 458790, 6, 65536, 458791, 6, 65538, 524288, 3, 196608, 524289, 3, 196609, 524290, 3, 196610, 524291, 3, 196608, 524292, 3, 196610, 524293, 3, 196608, 524294, 3, 196609, 524295, 3, 131073, 524296, 3, 131073, 524297, 3, 131074, 524326, 6, 65536, 524327, 6, 65538, 589824, 3, 0, 589825, 3, 0, 589826, 3, 65536, 589827, 3, 65538, 589828, 3, 65536, 589829, 3, 65537, 589830, 3, 65538, 589831, 3, 196608, 589832, 3, 196609, 589833, 3, 196610, 589862, 6, 131072, 589863, 6, 131074, 655360, 3, 0, 655361, 3, 0, 655362, 3, 196609, 655363, 3, 196610, 655364, 3, 196608, 655365, 3, 196609, 655366, 3, 196610, 655367, 3, 262144, 655368, 3, 262145, 655369, 3, 262146, 655398, 0, 0, 720896, 6, 0, 720897, 6, 2, 786432, 6, 65536, 786433, 6, 65538, 786469, 6, 0, 786470, 1, 0, 786471, 6, 2, 851968, 6, 65536, 851969, 6, 65538, 852005, 6, 131072, 852006, 6, 131073, 852007, 6, 131074, 917504, 6, 65536, 917505, 6, 65538, 917544, 3, 0, 983040, 6, 65536, 983041, 6, 65538, 983080, 3, 0, 1048576, 6, 65536, 1048577, 6, 65538, 1048616, 3, 0, 1114112, 6, 65536, 1114113, 6, 65538, 1114152, 3, 0, 1179648, 6, 65536, 1179649, 6, 65538, 1179686, 6, 0, 1179687, 6, 2, 1245184, 6, 65536, 1245185, 6, 65538, 1245222, 6, 65536, 1245223, 6, 65538, 1310720, 6, 65536, 1310721, 6, 65538, 1310758, 6, 65536, 1310759, 6, 65538, 1376256, 6, 65536, 1376257, 6, 65537, 1376258, 6, 1, 1376259, 6, 1, 1376260, 6, 1, 1376261, 6, 1, 1376262, 6, 1, 1376263, 6, 1, 1376264, 6, 1, 1376265, 6, 1, 1376266, 6, 1, 1376267, 6, 1, 1376268, 6, 1, 1376269, 6, 1, 1376270, 6, 1, 1376271, 6, 1, 1376272, 6, 1, 1376273, 6, 1, 1376274, 6, 1, 1376275, 6, 1, 1376276, 6, 1, 1376277, 6, 1, 1376278, 6, 1, 1376279, 6, 1, 1376280, 6, 1, 1376281, 6, 1, 1376282, 6, 1, 1376283, 6, 1, 1376284, 6, 1, 1376285, 6, 1, 1376286, 6, 1, 1376287, 6, 1, 1376288, 6, 1, 1376289, 6, 1, 1376290, 6, 1, 1376291, 6, 1, 1376292, 6, 1, 1376293, 6, 1, 1376294, 6, 65537, 1376295, 6, 65538, 1441792, 6, 131072, 1441793, 6, 131073, 1441794, 6, 131073, 1441795, 6, 131073, 1441796, 6, 131073, 1441797, 6, 131073, 1441798, 6, 131073, 1441799, 6, 131073, 1441800, 6, 131073, 1441801, 6, 131073, 1441802, 6, 131073, 1441803, 6, 131073, 1441804, 6, 131073, 1441805, 6, 131073, 1441806, 6, 131073, 1441807, 6, 131073, 1441808, 6, 131073, 1441809, 6, 131073, 1441810, 6, 131073, 1441811, 6, 131073, 1441812, 6, 131073, 1441813, 6, 131073, 1441814, 6, 131073, 1441815, 6, 131073, 1441816, 6, 131073, 1441817, 6, 131073, 1441818, 6, 131073, 1441819, 6, 131073, 1441820, 6, 131073, 1441821, 6, 131073, 1441822, 6, 131073, 1441823, 6, 131073, 1441824, 6, 131073, 1441825, 6, 131073, 1441826, 6, 131073, 1441827, 6, 131073, 1441828, 6, 131073, 1441829, 6, 131073, 1441830, 6, 131073, 1441831, 6, 131074 )

[node name="obj_MainCharacter" parent="." instance=ExtResource( 1 )]
position = Vector2( 144, 304 )

[node name="Position2D" type="Position2D" parent="obj_MainCharacter"]
position = Vector2( 32, 0 )

[node name="EnemyNinja2" parent="." instance=ExtResource( 3 )]
position = Vector2( 512, 336 )

[node name="EnemyNinja3" parent="." instance=ExtResource( 3 )]
position = Vector2( 400, 96 )

[node name="EnemyNinja4" parent="." instance=ExtResource( 3 )]
position = Vector2( 576, 96 )

[node name="Button" type="Button" parent="."]
margin_left = 544.0
margin_top = 16.0
margin_right = 624.0
margin_bottom = 64.0
text = "alert!"
__meta__ = {
"_edit_use_anchors_": false
}

[node name="Button2" type="Button" parent="."]
margin_left = 416.0
margin_top = 16.0
margin_right = 528.0
margin_bottom = 64.0
text = "empty queue"
script = SubResource( 1 )
__meta__ = {
"_edit_use_anchors_": false,
"_editor_description_": ""
}

[node name="Button3" type="Button" parent="."]
margin_left = 16.0
margin_top = 16.0
margin_right = 96.0
margin_bottom = 64.0
text = "Attack"
__meta__ = {
"_edit_use_anchors_": false
}

[node name="Button4" type="Button" parent="."]
margin_left = 528.0
margin_top = 74.0
margin_right = 626.0
margin_bottom = 122.0
text = "enemy attack"
__meta__ = {
"_edit_use_anchors_": false
}
[connection signal="pressed" from="Button" to="EnemyNinja4" method="OnBecomeAlert"]
[connection signal="pressed" from="Button" to="EnemyNinja2" method="OnBecomeAlert"]
[connection signal="pressed" from="Button" to="EnemyNinja3" method="OnBecomeAlert"]
[connection signal="pressed" from="Button2" to="Button2" method="_on_Button2_pressed"]
[connection signal="pressed" from="Button3" to="obj_MainCharacter" method="actions_attackingPlain"]
[connection signal="pressed" from="Button4" to="EnemyNinja4" method="Attack"]
[connection signal="pressed" from="Button4" to="EnemyNinja2" method="Attack"]
[connection signal="pressed" from="Button4" to="EnemyNinja3" method="Attack"]
